…
data

## # A tibble: 2,311 x 13
##    Country      Year Status     Life.expectancy Schooling   GDP Alcohol   BMI
##    <chr>       <dbl> <chr>                <dbl>     <dbl> <dbl>   <dbl> <dbl>
##  1 Afghanistan  2015 Developing            65        10.1 584.     0.01  19.1
##  2 Afghanistan  2014 Developing            59.9      10   613.     0.01  18.6
##  3 Afghanistan  2013 Developing            59.9       9.9 632.     0.01  18.1
##  4 Afghanistan  2012 Developing            59.5       9.8 670.     0.01  17.6
##  5 Afghanistan  2011 Developing            59.2       9.5  63.5    0.01  17.2
##  6 Afghanistan  2010 Developing            58.8       9.2 553.     0.01  16.7
##  7 Afghanistan  2009 Developing            58.6       8.9 446.     0.01  16.2
##  8 Afghanistan  2008 Developing            58.1       8.7 373.     0.03  15.7
##  9 Afghanistan  2007 Developing            57.5       8.4 370.     0.02  15.2
## 10 Afghanistan  2006 Developing            57.3       8.1 273.     0.03  14.7
## # … with 2,301 more rows, and 5 more variables: percentage.expenditure <dbl>,
## #   Income.composition.of.resources <dbl>, HIV.AIDS <dbl>,
## #   thinness.5.9.years <dbl>, thinness.10.19.years <dbl>
…
# av_error <- aggregate(error ~ Country, data = data, FUN = mean)
rse <- summary(model)$sigma
av_error <- data %>%
  group_by(Country) %>%
  summarize(count = n(), total_error = sum(error), mean_error = total_error / count) %>%
  mutate(p_val = pnorm(abs(total_error), mean = 0, sd = sqrt(count) * rse, lower.tail = FALSE))

(signif_error <- av_error %>%
    filter(p_val < 0.001) %>%
    arrange(p_val))

## # A tibble: 43 x 5
##    Country                count total_error mean_error    p_val
##    <chr>                  <int>       <dbl>      <dbl>    <dbl>
##  1 Sierra Leone              15      -226.      -15.1  2.02e-38
##  2 Angola                    15      -181.      -12.1  1.91e-25
##  3 Antigua and Barbuda       15       149.        9.94 8.16e-18
##  4 Nigeria                   15      -114.       -7.58 4.15e-11
##  5 Swaziland                 15       112.        7.48 7.32e-11
##  6 Kazakhstan                15      -112.       -7.45 8.60e-11
##  7 Maldives                  15       105.        6.98 1.12e- 9
##  8 Bosnia and Herzegovina    15       102.        6.81 2.68e- 9
##  9 Russian Federation        15       -99.4      -6.63 6.87e- 9
## 10 Togo                      15       -95.9      -6.39 2.18e- 8
## # … with 33 more rows
…
